Menu: otpions
-Historial
    -Buscar amigo
        -Chatear
        -Regresar
-Chatear
    -Buscar amigo
        -Mensjae
        -Adjuntar archivo
        -Regresar
-Mostrar amigos
    en linea 
        1.
        2.    
    desconectado
        1. 
        2.
    -Chatear (arreglo)
    -Regresar    
-Agrear amigo
    id adress o nombre, regresar directos
-GIGANIMACION (opcional)
-Salir

Función que impirma el nombre de usuario buscando por ip

5051
5 classes de los puros .java de chat
4 classes para la examinación en memoria
1 clase usuario
2 clases para social Menu
1 Menú principal
